2018-12-16TidyTextMining.com_-_King James Version (KJV).html
…
tidy_kjv <- kjv %>%
	mutate(linenumber = row_number(),
		 chapter = cumsum(str_detect(text, regex("^chapter [\\divxlc]", 
												 ignore_case = TRUE)))) %>%
	ungroup() %>%
	unnest_tokens(word, text) %>%
	anti_join(stop_words)

		List the top occurring words

tidy_kjv %>%
	count(word, sort = TRUE)

# A tibble: 12,514 x 2
   word       n
     
 1 lord    7830
 2 thou    5474
 3 thy     4600
 4 god     4445
 5 ye      3983
 6 thee    3827
 7 1       2783
 8 2       2721
 9 israel  2565
10 3       2560
# ... with 12,504 more rows
…
